(export (version D)
  (design
    (source /home/ne23kaj2/btsync/work/kicad/iccfpga-bluetooth/iccfpga-bluetooth.sch)
    (date "Mi 17 Jul 2019 14:28:25 CEST")
    (tool "Eeschema 5.1.2-f72e74a~84~ubuntu18.04.1")
    (sheet (number 1) (name /) (tstamps /)
      (title_block
        (title)
        (company)
        (rev)
        (date)
        (source iccfpga-bluetooth.sch)
        (comment (number 1) (value ""))
        (comment (number 2) (value ""))
        (comment (number 3) (value ""))
        (comment (number 4) (value "")))))
  (components
    (comp (ref U1)
      (value nRF51822-waveshare)
      (footprint myfootprints:nRF51822-waveshare)
      (libsource (lib mylib) (part nRF51822-waveshare) (description ""))
      (sheetpath (names /) (tstamps /))
      (tstamp 5D2F388F))
    (comp (ref U2)
      (value scd30)
      (footprint myfootprints:scd30)
      (libsource (lib mylib) (part scd30) (description ""))
      (sheetpath (names /) (tstamps /))
      (tstamp 5D2F489B)))
  (libparts
    (libpart (lib mylib) (part nRF51822-waveshare)
      (fields
        (field (name Reference) U)
        (field (name Value) nRF51822-waveshare))
      (pins
        (pin (num 1) (name GND) (type input))
        (pin (num 2) (name P21) (type input))
        (pin (num 3) (name P22) (type input))
        (pin (num 4) (name P23) (type input))
        (pin (num 5) (name P24) (type input))
        (pin (num 6) (name P25) (type input))
        (pin (num 7) (name NC) (type input))
        (pin (num 8) (name NC) (type input))
        (pin (num 9) (name P28) (type input))
        (pin (num 10) (name P29) (type input))
        (pin (num 11) (name GND) (type input))
        (pin (num 12) (name VCC) (type input))
        (pin (num 13) (name P30) (type input))
        (pin (num 14) (name P0) (type input))
        (pin (num 15) (name P1) (type input))
        (pin (num 16) (name P2) (type input))
        (pin (num 17) (name P3) (type input))
        (pin (num 18) (name P4) (type input))
        (pin (num 19) (name P5) (type input))
        (pin (num 20) (name P6) (type input))
        (pin (num 21) (name P7) (type input))
        (pin (num 22) (name P8) (type input))
        (pin (num 23) (name P9) (type input))
        (pin (num 24) (name P10) (type input))
        (pin (num 25) (name P11) (type input))
        (pin (num 26) (name P12) (type input))
        (pin (num 27) (name P13) (type input))
        (pin (num 28) (name P14) (type input))
        (pin (num 29) (name P15) (type input))
        (pin (num 30) (name P16) (type input))
        (pin (num 31) (name SWDIO) (type input))
        (pin (num 32) (name SWCLK) (type input))
        (pin (num 33) (name P17) (type input))
        (pin (num 34) (name P18) (type input))
        (pin (num 35) (name P19) (type input))
        (pin (num 36) (name P20) (type input))))
    (libpart (lib mylib) (part scd30)
      (fields
        (field (name Reference) U)
        (field (name Value) scd30))
      (pins
        (pin (num 1) (name VDD) (type input))
        (pin (num 2) (name GND) (type input))
        (pin (num 3) (name TX/SCL) (type input))
        (pin (num 4) (name RX/SDA) (type input))
        (pin (num 5) (name RDY) (type input))
        (pin (num 6) (name PWM) (type input))
        (pin (num 7) (name SEL) (type input)))))
  (libraries
    (library (logical mylib)
      (uri /home/ne23kaj2/btsync/work/kicad/libs/mylib.lib)))
  (nets
    (net (code 1) (name "Net-(U1-Pad6)")
      (node (ref U1) (pin 6)))
    (net (code 2) (name "Net-(U1-Pad3)")
      (node (ref U1) (pin 3)))
    (net (code 3) (name "Net-(U1-Pad30)")
      (node (ref U1) (pin 30)))
    (net (code 4) (name "Net-(U1-Pad31)")
      (node (ref U1) (pin 31)))
    (net (code 5) (name "Net-(U1-Pad32)")
      (node (ref U1) (pin 32)))
    (net (code 6) (name "Net-(U1-Pad33)")
      (node (ref U1) (pin 33)))
    (net (code 7) (name "Net-(U1-Pad34)")
      (node (ref U1) (pin 34)))
    (net (code 8) (name "Net-(U1-Pad35)")
      (node (ref U1) (pin 35)))
    (net (code 9) (name "Net-(U1-Pad36)")
      (node (ref U1) (pin 36)))
    (net (code 10) (name "Net-(U1-Pad4)")
      (node (ref U1) (pin 4)))
    (net (code 11) (name "Net-(U1-Pad5)")
      (node (ref U1) (pin 5)))
    (net (code 12) (name "Net-(U1-Pad29)")
      (node (ref U1) (pin 29)))
    (net (code 13) (name "Net-(U1-Pad7)")
      (node (ref U1) (pin 7)))
    (net (code 14) (name "Net-(U1-Pad8)")
      (node (ref U1) (pin 8)))
    (net (code 15) (name "Net-(U1-Pad9)")
      (node (ref U1) (pin 9)))
    (net (code 16) (name "Net-(U2-Pad1)")
      (node (ref U2) (pin 1)))
    (net (code 17) (name "Net-(U2-Pad2)")
      (node (ref U2) (pin 2)))
    (net (code 18) (name "Net-(U2-Pad3)")
      (node (ref U2) (pin 3)))
    (net (code 19) (name "Net-(U2-Pad4)")
      (node (ref U2) (pin 4)))
    (net (code 20) (name "Net-(U2-Pad5)")
      (node (ref U2) (pin 5)))
    (net (code 21) (name "Net-(U2-Pad6)")
      (node (ref U2) (pin 6)))
    (net (code 22) (name "Net-(U2-Pad7)")
      (node (ref U2) (pin 7)))
    (net (code 23) (name "Net-(U1-Pad2)")
      (node (ref U1) (pin 2)))
    (net (code 24) (name "Net-(U1-Pad10)")
      (node (ref U1) (pin 10)))
    (net (code 25) (name "Net-(U1-Pad11)")
      (node (ref U1) (pin 11)))
    (net (code 26) (name "Net-(U1-Pad12)")
      (node (ref U1) (pin 12)))
    (net (code 27) (name "Net-(U1-Pad13)")
      (node (ref U1) (pin 13)))
    (net (code 28) (name "Net-(U1-Pad14)")
      (node (ref U1) (pin 14)))
    (net (code 29) (name "Net-(U1-Pad15)")
      (node (ref U1) (pin 15)))
    (net (code 30) (name "Net-(U1-Pad16)")
      (node (ref U1) (pin 16)))
    (net (code 31) (name "Net-(U1-Pad17)")
      (node (ref U1) (pin 17)))
    (net (code 32) (name "Net-(U1-Pad18)")
      (node (ref U1) (pin 18)))
    (net (code 33) (name "Net-(U1-Pad19)")
      (node (ref U1) (pin 19)))
    (net (code 34) (name "Net-(U1-Pad1)")
      (node (ref U1) (pin 1)))
    (net (code 35) (name "Net-(U1-Pad20)")
      (node (ref U1) (pin 20)))
    (net (code 36) (name "Net-(U1-Pad21)")
      (node (ref U1) (pin 21)))
    (net (code 37) (name "Net-(U1-Pad22)")
      (node (ref U1) (pin 22)))
    (net (code 38) (name "Net-(U1-Pad23)")
      (node (ref U1) (pin 23)))
    (net (code 39) (name "Net-(U1-Pad24)")
      (node (ref U1) (pin 24)))
    (net (code 40) (name "Net-(U1-Pad25)")
      (node (ref U1) (pin 25)))
    (net (code 41) (name "Net-(U1-Pad26)")
      (node (ref U1) (pin 26)))
    (net (code 42) (name "Net-(U1-Pad27)")
      (node (ref U1) (pin 27)))
    (net (code 43) (name "Net-(U1-Pad28)")
      (node (ref U1) (pin 28)))))