EESchema Schematic File Version 4
LIBS:iccfpga-bluetooth-cache
EELAYER 30 0
EELAYER END
$Descr A4 11693 8268
encoding utf-8
Sheet 1 1
Title ""
Date ""
Rev ""
Comp ""
Comment1 ""
Comment2 ""
Comment3 ""
Comment4 ""
$EndDescr
$Comp
L mylib:scd30 U2
U 1 1 5D2F489B
P 7150 4250
F 0 "U2" H 7428 4296 50  0000 L CNN
F 1 "scd30" H 7428 4205 50  0000 L CNN
F 2 "myfootprints:scd30-smd" H 6950 4450 50  0001 C CNN
F 3 "" H 6950 4450 50  0001 C CNN
F 4 "D" H 7150 4250 50  0001 C CNN "Distributor"
F 5 "1649-1098-ND" H 7150 4250 50  0001 C CNN "OrderNr"
	1    7150 4250
	1    0    0    -1  
$EndComp
$Comp
L Connector:USB_B_Micro J1
U 1 1 5F99FBC2
P 900 1250
F 0 "J1" H 957 1717 50  0000 C CNN
F 1 "1051330011" H 957 1626 50  0000 C CNN
F 2 "myfootprints:MICROUSB_VERT" H 1050 1200 50  0001 C CNN
F 3 "~" H 1050 1200 50  0001 C CNN
F 4 "D" H 900 1250 50  0001 C CNN "Distributor"
F 5 "WM10134CT-ND" H 900 1250 50  0001 C CNN "OrderNr"
	1    900  1250
	1    0    0    -1  
$EndComp
$Comp
L power:GND #PWR0101
U 1 1 5F9A1C02
P 900 1650
F 0 "#PWR0101" H 900 1400 50  0001 C CNN
F 1 "GND" H 905 1477 50  0000 C CNN
F 2 "" H 900 1650 50  0001 C CNN
F 3 "" H 900 1650 50  0001 C CNN
	1    900  1650
	1    0    0    -1  
$EndComp
$Comp
L power:GND #PWR0102
U 1 1 5FC2ABE1
P 800 1650
F 0 "#PWR0102" H 800 1400 50  0001 C CNN
F 1 "GND" H 805 1477 50  0000 C CNN
F 2 "" H 800 1650 50  0001 C CNN
F 3 "" H 800 1650 50  0001 C CNN
	1    800  1650
	1    0    0    -1  
$EndComp
NoConn ~ 1200 1250
NoConn ~ 1200 1350
NoConn ~ 1200 1450
$Comp
L mylib:nina-b112 U1
U 1 1 5D30A6DC
P 4600 2950
F 0 "U1" H 4900 4000 50  0000 C CNN
F 1 "nina-b112" H 4300 4000 50  0000 C CNN
F 2 "myfootprints:nina-b112" H 4450 3150 50  0001 C CNN
F 3 "" H 4450 3150 50  0001 C CNN
F 4 "D" H 4600 2950 50  0001 C CNN "Distributor"
F 5 "672-NINA-B112-04B-00CT-ND" H 4600 2950 50  0001 C CNN "OrderNr"
	1    4600 2950
	-1   0    0    -1  
$EndComp
NoConn ~ 4000 2450
NoConn ~ 4000 3450
NoConn ~ 5250 3450
NoConn ~ 5250 3550
NoConn ~ 5250 3650
NoConn ~ 5250 2750
Wire Wire Line
	5850 4150 6050 4150
Wire Wire Line
	5750 4250 6300 4250
$Comp
L power:+3V3 #PWR0114
U 1 1 5D330DCE
P 6850 3950
F 0 "#PWR0114" H 6850 3800 50  0001 C CNN
F 1 "+3V3" V 6865 4078 50  0000 L CNN
F 2 "" H 6850 3950 50  0001 C CNN
F 3 "" H 6850 3950 50  0001 C CNN
	1    6850 3950
	1    0    0    -1  
$EndComp
$Comp
L power:GND #PWR0115
U 1 1 5D331118
P 6850 4050
F 0 "#PWR0115" H 6850 3800 50  0001 C CNN
F 1 "GND" V 6855 3922 50  0000 R CNN
F 2 "" H 6850 4050 50  0001 C CNN
F 3 "" H 6850 4050 50  0001 C CNN
	1    6850 4050
	0    1    1    0   
$EndComp
$Comp
L power:GND #PWR0116
U 1 1 5D331BCE
P 6850 4550
F 0 "#PWR0116" H 6850 4300 50  0001 C CNN
F 1 "GND" V 6855 4422 50  0000 R CNN
F 2 "" H 6850 4550 50  0001 C CNN
F 3 "" H 6850 4550 50  0001 C CNN
	1    6850 4550
	0    1    1    0   
$EndComp
Wire Wire Line
	5250 3550 5500 3550
Wire Wire Line
	5500 3550 5500 4350
Wire Wire Line
	5500 4350 6850 4350
$Comp
L Device:LED D1
U 1 1 5D333ABC
P 5350 1750
F 0 "D1" V 5389 1633 50  0000 R CNN
F 1 "LED" V 5298 1633 50  0000 R CNN
F 2 "LED_THT:LED_D5.0mm" H 5350 1750 50  0001 C CNN
F 3 "~" H 5350 1750 50  0001 C CNN
	1    5350 1750
	0    -1   -1   0   
$EndComp
$Comp
L Device:R R1
U 1 1 5D3345BB
P 5350 1350
F 0 "R1" H 5420 1396 50  0000 L CNN
F 1 "330" H 5420 1305 50  0000 L CNN
F 2 "Resistor_SMD:R_0805_2012Metric" V 5280 1350 50  0001 C CNN
F 3 "~" H 5350 1350 50  0001 C CNN
	1    5350 1350
	1    0    0    -1  
$EndComp
Wire Wire Line
	5350 1600 5350 1500
$Comp
L power:+3V3 #PWR0117
U 1 1 5D33788D
P 5350 1100
F 0 "#PWR0117" H 5350 950 50  0001 C CNN
F 1 "+3V3" V 5365 1228 50  0000 L CNN
F 2 "" H 5350 1100 50  0001 C CNN
F 3 "" H 5350 1100 50  0001 C CNN
	1    5350 1100
	1    0    0    -1  
$EndComp
Wire Wire Line
	5350 1100 5350 1200
$Comp
L mylib:waveshare-213 U3
U 1 1 5D3FDE84
P 10700 1900
F 0 "U3" H 11028 2051 50  0000 L CNN
F 1 "waveshare-213" H 11028 1960 50  0000 L CNN
F 2 "myfootprints:waveshare-213-x" H 10700 1900 50  0001 C CNN
F 3 "" H 10700 1900 50  0001 C CNN
F 4 "D" H 10700 1900 50  0001 C CNN "Distributor"
F 5 "HFK124CT-ND" H 10700 1900 50  0001 C CNN "OrderNr"
	1    10700 1900
	1    0    0    -1  
$EndComp
$Comp
L Device:C C8
U 1 1 5D4014BF
P 9900 3400
F 0 "C8" V 9850 3350 50  0000 R CNN
F 1 "1µ/25V" V 9950 3350 50  0000 R CNN
F 2 "Capacitor_SMD:C_0805_2012Metric" H 9938 3250 50  0001 C CNN
F 3 "~" H 9900 3400 50  0001 C CNN
	1    9900 3400
	-1   0    0    1   
$EndComp
$Comp
L Device:C C7
U 1 1 5D4025E5
P 9700 3400
F 0 "C7" V 9650 3350 50  0000 R CNN
F 1 "1µ/25V" V 9750 3350 50  0000 R CNN
F 2 "Capacitor_SMD:C_0805_2012Metric" H 9738 3250 50  0001 C CNN
F 3 "~" H 9700 3400 50  0001 C CNN
	1    9700 3400
	-1   0    0    1   
$EndComp
$Comp
L Device:C C6
U 1 1 5D40298E
P 9500 3400
F 0 "C6" V 9450 3350 50  0000 R CNN
F 1 "1µ/25V" V 9550 3350 50  0000 R CNN
F 2 "Capacitor_SMD:C_0805_2012Metric" H 9538 3250 50  0001 C CNN
F 3 "~" H 9500 3400 50  0001 C CNN
	1    9500 3400
	-1   0    0    1   
$EndComp
$Comp
L Device:C C4
U 1 1 5D402D4E
P 9300 3400
F 0 "C4" V 9250 3350 50  0000 R CNN
F 1 "1µ/25V" V 9350 3350 50  0000 R CNN
F 2 "Capacitor_SMD:C_0805_2012Metric" H 9338 3250 50  0001 C CNN
F 3 "~" H 9300 3400 50  0001 C CNN
	1    9300 3400
	-1   0    0    1   
$EndComp
$Comp
L Device:C C3
U 1 1 5D4030A0
P 9100 3400
F 0 "C3" V 9050 3350 50  0000 R CNN
F 1 "1µ/25V" V 9150 3350 50  0000 R CNN
F 2 "Capacitor_SMD:C_0805_2012Metric" H 9138 3250 50  0001 C CNN
F 3 "~" H 9100 3400 50  0001 C CNN
	1    9100 3400
	-1   0    0    1   
$EndComp
Wire Wire Line
	10450 2950 9900 2950
Wire Wire Line
	10450 2750 9700 2750
Wire Wire Line
	10450 2550 9500 2550
Wire Wire Line
	10450 2350 9300 2350
Wire Wire Line
	10450 2150 10300 2150
Wire Wire Line
	10450 1050 8700 1050
Wire Wire Line
	10450 950  8500 950 
$Comp
L power:GND #PWR0103
U 1 1 5D408D43
P 9100 3550
F 0 "#PWR0103" H 9100 3300 50  0001 C CNN
F 1 "GND" H 9105 3377 50  0000 C CNN
F 2 "" H 9100 3550 50  0001 C CNN
F 3 "" H 9100 3550 50  0001 C CNN
	1    9100 3550
	1    0    0    -1  
$EndComp
$Comp
L power:GND #PWR0104
U 1 1 5D408FC6
P 9300 3550
F 0 "#PWR0104" H 9300 3300 50  0001 C CNN
F 1 "GND" H 9305 3377 50  0000 C CNN
F 2 "" H 9300 3550 50  0001 C CNN
F 3 "" H 9300 3550 50  0001 C CNN
	1    9300 3550
	1    0    0    -1  
$EndComp
$Comp
L power:GND #PWR0105
U 1 1 5D4091C3
P 9500 3550
F 0 "#PWR0105" H 9500 3300 50  0001 C CNN
F 1 "GND" H 9505 3377 50  0000 C CNN
F 2 "" H 9500 3550 50  0001 C CNN
F 3 "" H 9500 3550 50  0001 C CNN
	1    9500 3550
	1    0    0    -1  
$EndComp
$Comp
L power:GND #PWR0106
U 1 1 5D4093B9
P 9700 3550
F 0 "#PWR0106" H 9700 3300 50  0001 C CNN
F 1 "GND" H 9705 3377 50  0000 C CNN
F 2 "" H 9700 3550 50  0001 C CNN
F 3 "" H 9700 3550 50  0001 C CNN
	1    9700 3550
	1    0    0    -1  
$EndComp
$Comp
L power:GND #PWR0107
U 1 1 5D40960E
P 9900 3550
F 0 "#PWR0107" H 9900 3300 50  0001 C CNN
F 1 "GND" H 9905 3377 50  0000 C CNN
F 2 "" H 9900 3550 50  0001 C CNN
F 3 "" H 9900 3550 50  0001 C CNN
	1    9900 3550
	1    0    0    -1  
$EndComp
$Comp
L Diode:MBR0530 D3
U 1 1 5D409C82
P 10550 4150
F 0 "D3" H 10550 4366 50  0000 C CNN
F 1 "MBR0530" H 10550 4275 50  0000 C CNN
F 2 "Diode_SMD:D_SOD-123" H 10550 3975 50  0001 C CNN
F 3 "http://www.mccsemi.com/up_pdf/MBR0520~MBR0580(SOD123).pdf" H 10550 4150 50  0001 C CNN
	1    10550 4150
	1    0    0    -1  
$EndComp
$Comp
L power:GND #PWR0108
U 1 1 5D408BBD
P 8700 3550
F 0 "#PWR0108" H 8700 3300 50  0001 C CNN
F 1 "GND" H 8705 3377 50  0000 C CNN
F 2 "" H 8700 3550 50  0001 C CNN
F 3 "" H 8700 3550 50  0001 C CNN
	1    8700 3550
	1    0    0    -1  
$EndComp
$Comp
L power:GND #PWR0109
U 1 1 5D408819
P 8500 3550
F 0 "#PWR0109" H 8500 3300 50  0001 C CNN
F 1 "GND" H 8505 3377 50  0000 C CNN
F 2 "" H 8500 3550 50  0001 C CNN
F 3 "" H 8500 3550 50  0001 C CNN
	1    8500 3550
	1    0    0    -1  
$EndComp
$Comp
L Device:C C1
U 1 1 5D403718
P 8500 3400
F 0 "C1" V 8450 3350 50  0000 R CNN
F 1 "1µ/25V" V 8550 3350 50  0000 R CNN
F 2 "Capacitor_SMD:C_0805_2012Metric" H 8538 3250 50  0001 C CNN
F 3 "~" H 8500 3400 50  0001 C CNN
	1    8500 3400
	-1   0    0    1   
$EndComp
$Comp
L Device:C C2
U 1 1 5D403441
P 8700 3400
F 0 "C2" V 8650 3350 50  0000 R CNN
F 1 "1µ/25V" V 8750 3350 50  0000 R CNN
F 2 "Capacitor_SMD:C_0805_2012Metric" H 8738 3250 50  0001 C CNN
F 3 "~" H 8700 3400 50  0001 C CNN
	1    8700 3400
	-1   0    0    1   
$EndComp
Wire Wire Line
	8500 950  8500 3250
Wire Wire Line
	8700 1050 8700 3250
Wire Wire Line
	9100 2150 9100 3250
Wire Wire Line
	9300 2350 9300 3250
Wire Wire Line
	9500 2550 9500 3250
Wire Wire Line
	9700 2750 9700 3250
Wire Wire Line
	9900 2950 9900 3250
$Comp
L Diode:MBR0530 D2
U 1 1 5D413E88
P 10550 3800
F 0 "D2" H 10550 3584 50  0000 C CNN
F 1 "MBR0530" H 10550 3675 50  0000 C CNN
F 2 "Diode_SMD:D_SOD-123" H 10550 3625 50  0001 C CNN
F 3 "http://www.mccsemi.com/up_pdf/MBR0520~MBR0580(SOD123).pdf" H 10550 3800 50  0001 C CNN
	1    10550 3800
	-1   0    0    1   
$EndComp
$Comp
L Diode:MBR0530 D4
U 1 1 5D4148F5
P 10550 4800
F 0 "D4" H 10550 4584 50  0000 C CNN
F 1 "MBR0530" H 10550 4675 50  0000 C CNN
F 2 "Diode_SMD:D_SOD-123" H 10550 4625 50  0001 C CNN
F 3 "http://www.mccsemi.com/up_pdf/MBR0520~MBR0580(SOD123).pdf" H 10550 4800 50  0001 C CNN
	1    10550 4800
	-1   0    0    1   
$EndComp
$Comp
L power:GND #PWR0110
U 1 1 5D415196
P 10700 3800
F 0 "#PWR0110" H 10700 3550 50  0001 C CNN
F 1 "GND" V 10705 3672 50  0000 R CNN
F 2 "" H 10700 3800 50  0001 C CNN
F 3 "" H 10700 3800 50  0001 C CNN
	1    10700 3800
	0    -1   -1   0   
$EndComp
Wire Wire Line
	10400 3800 10200 3800
Wire Wire Line
	10200 3800 10200 4150
Wire Wire Line
	10200 4150 10400 4150
$Comp
L Device:C C9
U 1 1 5D416EE7
P 10200 4400
F 0 "C9" H 10000 4300 50  0000 L CNN
F 1 "100n/50V" H 10000 4500 50  0000 L CNN
F 2 "Capacitor_SMD:C_0805_2012Metric" H 10238 4250 50  0001 C CNN
F 3 "~" H 10200 4400 50  0001 C CNN
	1    10200 4400
	1    0    0    -1  
$EndComp
Wire Wire Line
	10200 4250 10200 4150
Connection ~ 10200 4150
Wire Wire Line
	10200 4550 10200 4800
Wire Wire Line
	10200 4800 10400 4800
$Comp
L Device:L L1
U 1 1 5D41983C
P 9800 4800
F 0 "L1" V 9990 4800 50  0000 C CNN
F 1 "68µH" V 9899 4800 50  0000 C CNN
F 2 "Inductor_SMD:L_Taiyo-Yuden_NR-50xx" H 9800 4800 50  0001 C CNN
F 3 "~" H 9800 4800 50  0001 C CNN
F 4 "D" H 9800 4800 50  0001 C CNN "Distributor"
F 5 "732-7252-1-ND" H 9800 4800 50  0001 C CNN "OrderNr"
	1    9800 4800
	0    -1   -1   0   
$EndComp
$Comp
L Device:Q_NMOS_GSD Q1
U 1 1 5D41A60A
P 10100 5350
F 0 "Q1" H 10306 5396 50  0000 L CNN
F 1 "PMF250XNE" H 10306 5305 50  0000 L CNN
F 2 "Package_TO_SOT_SMD:SOT-323_SC-70" H 10300 5450 50  0001 C CNN
F 3 "~" H 10100 5350 50  0001 C CNN
F 4 "D" H 10100 5350 50  0001 C CNN "Distributor"
F 5 "1727-2693-1-ND" H 10100 5350 50  0001 C CNN "OrderNr"
	1    10100 5350
	1    0    0    -1  
$EndComp
$Comp
L Device:R R2
U 1 1 5D41B360
P 9800 6050
F 0 "R2" H 9870 6096 50  0000 L CNN
F 1 "10k" H 9870 6005 50  0000 L CNN
F 2 "Resistor_SMD:R_0805_2012Metric" V 9730 6050 50  0001 C CNN
F 3 "~" H 9800 6050 50  0001 C CNN
	1    9800 6050
	1    0    0    -1  
$EndComp
$Comp
L Device:R R3
U 1 1 5D41B902
P 10200 6050
F 0 "R3" H 10270 6096 50  0000 L CNN
F 1 "0.47" H 10270 6005 50  0000 L CNN
F 2 "Resistor_SMD:R_1206_3216Metric" V 10130 6050 50  0001 C CNN
F 3 "~" H 10200 6050 50  0001 C CNN
	1    10200 6050
	1    0    0    -1  
$EndComp
Wire Wire Line
	9800 5900 9800 5750
Wire Wire Line
	9800 5350 9900 5350
Wire Wire Line
	10200 5900 10200 5600
Wire Wire Line
	10200 5150 10200 4800
Connection ~ 10200 4800
Wire Wire Line
	10200 4800 9950 4800
$Comp
L Device:C C5
U 1 1 5D41FE07
P 9550 5050
F 0 "C5" H 9665 5096 50  0000 L CNN
F 1 "4,7µ" H 9665 5005 50  0000 L CNN
F 2 "Capacitor_SMD:C_0805_2012Metric" H 9588 4900 50  0001 C CNN
F 3 "~" H 9550 5050 50  0001 C CNN
	1    9550 5050
	1    0    0    -1  
$EndComp
Wire Wire Line
	9550 4900 9550 4800
Wire Wire Line
	9550 4800 9650 4800
$Comp
L power:GND #PWR0111
U 1 1 5D42139F
P 9550 5200
F 0 "#PWR0111" H 9550 4950 50  0001 C CNN
F 1 "GND" H 9555 5027 50  0000 C CNN
F 2 "" H 9550 5200 50  0001 C CNN
F 3 "" H 9550 5200 50  0001 C CNN
	1    9550 5200
	1    0    0    -1  
$EndComp
Wire Wire Line
	9550 4800 9300 4800
Connection ~ 9550 4800
$Comp
L power:+3V3 #PWR0112
U 1 1 5D42A009
P 9300 4800
F 0 "#PWR0112" H 9300 4650 50  0001 C CNN
F 1 "+3V3" H 9315 4973 50  0000 C CNN
F 2 "" H 9300 4800 50  0001 C CNN
F 3 "" H 9300 4800 50  0001 C CNN
	1    9300 4800
	1    0    0    -1  
$EndComp
Wire Wire Line
	10700 4150 10850 4150
Wire Wire Line
	10700 4800 10850 4800
Text Label 10800 4150 0    50   ~ 0
PREVGL
Text Label 10800 4800 0    50   ~ 0
PREVGH
$Comp
L power:GND #PWR0113
U 1 1 5D42D5B3
P 9800 6200
F 0 "#PWR0113" H 9800 5950 50  0001 C CNN
F 1 "GND" H 9805 6027 50  0000 C CNN
F 2 "" H 9800 6200 50  0001 C CNN
F 3 "" H 9800 6200 50  0001 C CNN
	1    9800 6200
	1    0    0    -1  
$EndComp
$Comp
L power:GND #PWR0118
U 1 1 5D42D81C
P 10200 6200
F 0 "#PWR0118" H 10200 5950 50  0001 C CNN
F 1 "GND" H 10205 6027 50  0000 C CNN
F 2 "" H 10200 6200 50  0001 C CNN
F 3 "" H 10200 6200 50  0001 C CNN
	1    10200 6200
	1    0    0    -1  
$EndComp
Wire Wire Line
	10200 5600 11000 5600
Connection ~ 10200 5600
Wire Wire Line
	10200 5600 10200 5550
Text Label 10800 5600 0    50   ~ 0
RESE
Wire Wire Line
	9800 5750 11000 5750
Connection ~ 9800 5750
Wire Wire Line
	9800 5750 9800 5350
Text Label 10800 5750 0    50   ~ 0
GDR
Wire Wire Line
	10150 2850 10450 2850
Wire Wire Line
	10450 2650 10150 2650
Text Label 10400 2650 2    50   ~ 0
PREVGH
Text Label 10400 2850 2    50   ~ 0
PREVGL
Wire Wire Line
	10450 750  10150 750 
Text Label 10400 750  2    50   ~ 0
GDR
Wire Wire Line
	10450 850  10150 850 
Text Label 10400 850  2    50   ~ 0
RESE
Wire Wire Line
	10450 2050 10300 2050
Wire Wire Line
	10300 2050 10300 2150
Connection ~ 10300 2150
$Comp
L power:+3V3 #PWR0119
U 1 1 5D440508
P 9100 2050
F 0 "#PWR0119" H 9100 1900 50  0001 C CNN
F 1 "+3V3" H 9115 2223 50  0000 C CNN
F 2 "" H 9100 2050 50  0001 C CNN
F 3 "" H 9100 2050 50  0001 C CNN
	1    9100 2050
	1    0    0    -1  
$EndComp
Wire Wire Line
	10300 2150 9100 2150
Wire Wire Line
	9100 2050 9100 2150
Connection ~ 9100 2150
$Comp
L power:GND #PWR0120
U 1 1 5D444223
P 10450 2250
F 0 "#PWR0120" H 10450 2000 50  0001 C CNN
F 1 "GND" V 10455 2122 50  0000 R CNN
F 2 "" H 10450 2250 50  0001 C CNN
F 3 "" H 10450 2250 50  0001 C CNN
	1    10450 2250
	0    1    1    0   
$EndComp
$Comp
L power:GND #PWR0121
U 1 1 5D445855
P 10450 1350
F 0 "#PWR0121" H 10450 1100 50  0001 C CNN
F 1 "GND" V 10455 1222 50  0000 R CNN
F 2 "" H 10450 1350 50  0001 C CNN
F 3 "" H 10450 1350 50  0001 C CNN
	1    10450 1350
	0    1    1    0   
$EndComp
$Comp
L Regulator_Linear:AZ1117-3.3 U4
U 1 1 5D3A240A
P 2200 1050
F 0 "U4" H 2200 1292 50  0000 C CNN
F 1 "AZ1117-3.3" H 2200 1201 50  0000 C CNN
F 2 "Package_TO_SOT_SMD:SOT-223-3_TabPin2" H 2200 1300 50  0001 C CIN
F 3 "https://www.diodes.com/assets/Datasheets/AZ1117.pdf" H 2200 1050 50  0001 C CNN
	1    2200 1050
	1    0    0    -1  
$EndComp
$Comp
L Device:C C10
U 1 1 5D3A2BA6
P 1650 1250
F 0 "C10" V 1600 1200 50  0000 R CNN
F 1 "10µ" V 1700 1200 50  0000 R CNN
F 2 "Capacitor_SMD:C_1206_3216Metric" H 1688 1100 50  0001 C CNN
F 3 "~" H 1650 1250 50  0001 C CNN
	1    1650 1250
	-1   0    0    1   
$EndComp
$Comp
L Device:C C11
U 1 1 5D3A351F
P 2750 1250
F 0 "C11" V 2700 1200 50  0000 R CNN
F 1 "10µ" V 2800 1200 50  0000 R CNN
F 2 "Capacitor_SMD:C_1206_3216Metric" H 2788 1100 50  0001 C CNN
F 3 "~" H 2750 1250 50  0001 C CNN
	1    2750 1250
	-1   0    0    1   
$EndComp
Wire Wire Line
	1200 1050 1650 1050
Wire Wire Line
	1650 1100 1650 1050
Connection ~ 1650 1050
Wire Wire Line
	1650 1050 1900 1050
Wire Wire Line
	2500 1050 2750 1050
$Comp
L power:+3V3 #PWR0122
U 1 1 5D3A7931
P 3050 1050
F 0 "#PWR0122" H 3050 900 50  0001 C CNN
F 1 "+3V3" H 3065 1223 50  0000 C CNN
F 2 "" H 3050 1050 50  0001 C CNN
F 3 "" H 3050 1050 50  0001 C CNN
	1    3050 1050
	1    0    0    -1  
$EndComp
Wire Wire Line
	2750 1050 2750 1100
Connection ~ 2750 1050
Wire Wire Line
	2750 1050 3050 1050
$Comp
L power:GND #PWR0123
U 1 1 5D3A9358
P 2200 1550
F 0 "#PWR0123" H 2200 1300 50  0001 C CNN
F 1 "GND" H 2205 1377 50  0000 C CNN
F 2 "" H 2200 1550 50  0001 C CNN
F 3 "" H 2200 1550 50  0001 C CNN
	1    2200 1550
	1    0    0    -1  
$EndComp
Wire Wire Line
	1650 1400 1650 1450
Wire Wire Line
	1650 1450 2200 1450
Wire Wire Line
	2200 1450 2200 1550
Wire Wire Line
	2200 1350 2200 1450
Connection ~ 2200 1450
Wire Wire Line
	2750 1400 2750 1450
Wire Wire Line
	2750 1450 2200 1450
$Comp
L Device:C C12
U 1 1 5D3B45D1
P 8900 3400
F 0 "C12" V 8950 3450 50  0000 L CNN
F 1 "100n/50V" V 8850 3450 50  0000 L CNN
F 2 "Capacitor_SMD:C_0805_2012Metric" H 8938 3250 50  0001 C CNN
F 3 "~" H 8900 3400 50  0001 C CNN
	1    8900 3400
	1    0    0    -1  
$EndComp
$Comp
L power:GND #PWR0124
U 1 1 5D3B4C0A
P 8900 3550
F 0 "#PWR0124" H 8900 3300 50  0001 C CNN
F 1 "GND" H 8905 3377 50  0000 C CNN
F 2 "" H 8900 3550 50  0001 C CNN
F 3 "" H 8900 3550 50  0001 C CNN
	1    8900 3550
	1    0    0    -1  
$EndComp
Wire Wire Line
	8900 3250 8900 2150
Wire Wire Line
	8900 2150 9100 2150
$Comp
L Connector_Generic:Conn_01x04 J2
U 1 1 5CAAF934
P 2100 3100
F 0 "J2" H 2180 3092 50  0000 L CNN
F 1 "Conn_01x04" H 2180 3001 50  0000 L CNN
F 2 "Connector_PinHeader_1.27mm:PinHeader_1x04_P1.27mm_Vertical_SMD_Pin1Left" H 2100 3100 50  0001 C CNN
F 3 "~" H 2100 3100 50  0001 C CNN
F 4 "D" H 2100 3100 50  0001 C CNN "Distributor"
F 5 "952-3611-ND" H 2100 3100 50  0001 C CNN "OrderNr"
	1    2100 3100
	1    0    0    -1  
$EndComp
Wire Wire Line
	1900 3000 1600 3000
Wire Wire Line
	1900 3300 1750 3300
$Comp
L iccfpga-bluetooth-rescue:GND-pearldiver-rescue #PWR0125
U 1 1 5CB4193C
P 1750 3300
F 0 "#PWR0125" H 1750 3050 50  0001 C CNN
F 1 "GND" H 1755 3127 50  0000 C CNN
F 2 "" H 1750 3300 50  0001 C CNN
F 3 "" H 1750 3300 50  0001 C CNN
	1    1750 3300
	1    0    0    -1  
$EndComp
Text Label 1300 3000 2    50   ~ 0
SWD_RESET
Text Label 1300 3100 2    50   ~ 0
SWD_IO
Text Label 1300 3200 2    50   ~ 0
SWD_CLK
$Comp
L Jumper:SolderJumper_2_Open JP1
U 1 1 5D3D4F3A
P 1450 3000
F 0 "JP1" H 1450 3113 50  0000 C CNN
F 1 "SolderJumper_2_Open" H 1450 3114 50  0001 C CNN
F 2 "Jumper:SolderJumper-2_P1.3mm_Open_RoundedPad1.0x1.5mm" H 1450 3000 50  0001 C CNN
F 3 "~" H 1450 3000 50  0001 C CNN
	1    1450 3000
	1    0    0    -1  
$EndComp
Wire Wire Line
	1300 3000 1100 3000
Wire Wire Line
	1100 3100 1900 3100
Wire Wire Line
	1100 3200 1900 3200
Text Label 3950 3250 2    50   ~ 0
SWD_CLK
Wire Wire Line
	4000 3250 3700 3250
Wire Wire Line
	4000 3150 3700 3150
Wire Wire Line
	4000 3350 3700 3350
Text Label 3950 3350 2    50   ~ 0
SWD_IO
Text Label 3950 3150 2    50   ~ 0
SWD_RESET
$Comp
L power:GND #PWR0126
U 1 1 5D3E7BC3
P 4000 3650
F 0 "#PWR0126" H 4000 3400 50  0001 C CNN
F 1 "GND" H 4005 3477 50  0000 C CNN
F 2 "" H 4000 3650 50  0001 C CNN
F 3 "" H 4000 3650 50  0001 C CNN
	1    4000 3650
	1    0    0    -1  
$EndComp
$Comp
L power:+3V3 #PWR0127
U 1 1 5D3E841B
P 3800 2250
F 0 "#PWR0127" H 3800 2100 50  0001 C CNN
F 1 "+3V3" V 3815 2378 50  0000 L CNN
F 2 "" H 3800 2250 50  0001 C CNN
F 3 "" H 3800 2250 50  0001 C CNN
	1    3800 2250
	0    -1   -1   0   
$EndComp
Wire Wire Line
	3800 2250 4000 2250
$Comp
L Device:C C13
U 1 1 5D3EB0B7
P 2850 2050
F 0 "C13" H 2650 1950 50  0000 L CNN
F 1 "100n/50V" H 2650 2150 50  0000 L CNN
F 2 "Capacitor_SMD:C_0805_2012Metric" H 2888 1900 50  0001 C CNN
F 3 "~" H 2850 2050 50  0001 C CNN
	1    2850 2050
	1    0    0    -1  
$EndComp
$Comp
L power:GND #PWR0128
U 1 1 5D3EB61B
P 2850 2200
F 0 "#PWR0128" H 2850 1950 50  0001 C CNN
F 1 "GND" H 2855 2027 50  0000 C CNN
F 2 "" H 2850 2200 50  0001 C CNN
F 3 "" H 2850 2200 50  0001 C CNN
	1    2850 2200
	1    0    0    -1  
$EndComp
$Comp
L power:+3V3 #PWR0129
U 1 1 5D3EB992
P 2850 1900
F 0 "#PWR0129" H 2850 1750 50  0001 C CNN
F 1 "+3V3" H 2865 2073 50  0000 C CNN
F 2 "" H 2850 1900 50  0001 C CNN
F 3 "" H 2850 1900 50  0001 C CNN
	1    2850 1900
	1    0    0    -1  
$EndComp
Wire Wire Line
	5850 2250 5850 4150
Wire Wire Line
	5750 2150 5250 2150
Wire Wire Line
	5750 2150 5750 4250
Wire Wire Line
	5850 2250 5250 2250
Text Label 10400 1550 2    50   ~ 0
RES#
Text Label 10400 1650 2    50   ~ 0
DC#
Text Label 10400 1750 2    50   ~ 0
CS#
Text Label 10400 1850 2    50   ~ 0
SCLK
Text Label 10400 1950 2    50   ~ 0
SDIN
Wire Wire Line
	10450 1550 10100 1550
Wire Wire Line
	10450 1650 10100 1650
Wire Wire Line
	10450 1750 10100 1750
Wire Wire Line
	10450 1850 10100 1850
Wire Wire Line
	10450 1950 10100 1950
Text Label 5300 2850 0    50   ~ 0
RES#
Text Label 5300 2950 0    50   ~ 0
DC#
Text Label 5300 3050 0    50   ~ 0
CS#
Text Label 5300 3150 0    50   ~ 0
SCLK
Text Label 5300 3250 0    50   ~ 0
SDIN
Wire Wire Line
	5250 2950 5600 2950
Wire Wire Line
	5250 3050 5600 3050
Wire Wire Line
	5250 3150 5600 3150
Wire Wire Line
	5250 3250 5600 3250
Wire Wire Line
	10450 1450 10100 1450
Text Label 10400 1450 2    50   ~ 0
BUSY
Text Label 5300 3350 0    50   ~ 0
BUSY
Wire Wire Line
	5250 3350 5600 3350
$Comp
L Device:C C14
U 1 1 5D3B672D
P 10850 4350
F 0 "C14" V 10800 4300 50  0000 R CNN
F 1 "1µ/25V" V 10900 4300 50  0000 R CNN
F 2 "Capacitor_SMD:C_0805_2012Metric" H 10888 4200 50  0001 C CNN
F 3 "~" H 10850 4350 50  0001 C CNN
	1    10850 4350
	-1   0    0    1   
$EndComp
$Comp
L Device:C C15
U 1 1 5D3CCAB5
P 10850 5000
F 0 "C15" V 10800 4950 50  0000 R CNN
F 1 "1µ/25V" V 10900 4950 50  0000 R CNN
F 2 "Capacitor_SMD:C_0805_2012Metric" H 10888 4850 50  0001 C CNN
F 3 "~" H 10850 5000 50  0001 C CNN
	1    10850 5000
	-1   0    0    1   
$EndComp
Wire Wire Line
	10850 4850 10850 4800
Connection ~ 10850 4800
Wire Wire Line
	10850 4800 11000 4800
Wire Wire Line
	10850 4200 10850 4150
Connection ~ 10850 4150
Wire Wire Line
	10850 4150 11000 4150
$Comp
L power:GND #PWR0130
U 1 1 5D3D29E5
P 10850 5150
F 0 "#PWR0130" H 10850 4900 50  0001 C CNN
F 1 "GND" H 11000 5150 50  0000 R CNN
F 2 "" H 10850 5150 50  0001 C CNN
F 3 "" H 10850 5150 50  0001 C CNN
	1    10850 5150
	1    0    0    -1  
$EndComp
$Comp
L power:GND #PWR0131
U 1 1 5D3D2EE7
P 10850 4500
F 0 "#PWR0131" H 10850 4250 50  0001 C CNN
F 1 "GND" H 11000 4500 50  0000 R CNN
F 2 "" H 10850 4500 50  0001 C CNN
F 3 "" H 10850 4500 50  0001 C CNN
	1    10850 4500
	1    0    0    -1  
$EndComp
Wire Wire Line
	5250 2450 5350 2450
Wire Wire Line
	5350 2450 5350 1900
$Comp
L Switch:SW_Push SW1
U 1 1 5D41C118
P 2600 5750
F 0 "SW1" V 2554 5898 50  0000 L CNN
F 1 "SW_Push" V 2645 5898 50  0000 L CNN
F 2 "Button_Switch_SMD:SW_Push_1P1T_NO_CK_KMR2" H 2600 5950 50  0001 C CNN
F 3 "~" H 2600 5950 50  0001 C CNN
	1    2600 5750
	0    1    1    0   
$EndComp
$Comp
L Switch:SW_Push SW2
U 1 1 5D41C3B5
P 3150 5750
F 0 "SW2" V 3104 5898 50  0000 L CNN
F 1 "SW_Push" V 3195 5898 50  0000 L CNN
F 2 "Button_Switch_SMD:SW_Push_1P1T_NO_CK_KMR2" H 3150 5950 50  0001 C CNN
F 3 "~" H 3150 5950 50  0001 C CNN
	1    3150 5750
	0    1    1    0   
$EndComp
$Comp
L power:GND #PWR0132
U 1 1 5D41CEE7
P 2600 5950
F 0 "#PWR0132" H 2600 5700 50  0001 C CNN
F 1 "GND" H 2605 5777 50  0000 C CNN
F 2 "" H 2600 5950 50  0001 C CNN
F 3 "" H 2600 5950 50  0001 C CNN
	1    2600 5950
	1    0    0    -1  
$EndComp
$Comp
L power:GND #PWR0133
U 1 1 5D41D15D
P 3150 5950
F 0 "#PWR0133" H 3150 5700 50  0001 C CNN
F 1 "GND" H 3155 5777 50  0000 C CNN
F 2 "" H 3150 5950 50  0001 C CNN
F 3 "" H 3150 5950 50  0001 C CNN
	1    3150 5950
	1    0    0    -1  
$EndComp
$Comp
L Device:R R4
U 1 1 5D41D3C4
P 2600 5300
F 0 "R4" H 2670 5346 50  0000 L CNN
F 1 "10k" H 2670 5255 50  0000 L CNN
F 2 "Resistor_SMD:R_0805_2012Metric" V 2530 5300 50  0001 C CNN
F 3 "~" H 2600 5300 50  0001 C CNN
	1    2600 5300
	1    0    0    -1  
$EndComp
$Comp
L Device:R R5
U 1 1 5D41D7E9
P 3150 5300
F 0 "R5" H 3220 5346 50  0000 L CNN
F 1 "10k" H 3220 5255 50  0000 L CNN
F 2 "Resistor_SMD:R_0805_2012Metric" V 3080 5300 50  0001 C CNN
F 3 "~" H 3150 5300 50  0001 C CNN
	1    3150 5300
	1    0    0    -1  
$EndComp
$Comp
L power:+3V3 #PWR0134
U 1 1 5D41E12A
P 2600 5150
F 0 "#PWR0134" H 2600 5000 50  0001 C CNN
F 1 "+3V3" H 2615 5323 50  0000 C CNN
F 2 "" H 2600 5150 50  0001 C CNN
F 3 "" H 2600 5150 50  0001 C CNN
	1    2600 5150
	1    0    0    -1  
$EndComp
$Comp
L power:+3V3 #PWR0135
U 1 1 5D41E2F5
P 3150 5150
F 0 "#PWR0135" H 3150 5000 50  0001 C CNN
F 1 "+3V3" H 3165 5323 50  0000 C CNN
F 2 "" H 3150 5150 50  0001 C CNN
F 3 "" H 3150 5150 50  0001 C CNN
	1    3150 5150
	1    0    0    -1  
$EndComp
Wire Wire Line
	2600 5450 2600 5500
Wire Wire Line
	3150 5450 3150 5500
Wire Wire Line
	2600 5500 2850 5500
Connection ~ 2600 5500
Wire Wire Line
	2600 5500 2600 5550
Text Label 2700 5500 0    50   ~ 0
SW1
Wire Wire Line
	3150 5500 3350 5500
Connection ~ 3150 5500
Wire Wire Line
	3150 5500 3150 5550
Text Label 3200 5500 0    50   ~ 0
SW2
Text Label 5300 2550 0    50   ~ 0
SW1
Text Label 5300 2650 0    50   ~ 0
SW2
Wire Wire Line
	5250 2650 5600 2650
Wire Wire Line
	5250 2550 5600 2550
$Comp
L Device:R R6
U 1 1 5D432E1F
P 6050 3900
F 0 "R6" H 6120 3946 50  0000 L CNN
F 1 "2k2" H 6120 3855 50  0000 L CNN
F 2 "Resistor_SMD:R_0805_2012Metric" V 5980 3900 50  0001 C CNN
F 3 "~" H 6050 3900 50  0001 C CNN
	1    6050 3900
	1    0    0    -1  
$EndComp
$Comp
L Device:R R7
U 1 1 5D4331BC
P 6300 3900
F 0 "R7" H 6370 3946 50  0000 L CNN
F 1 "2k2" H 6370 3855 50  0000 L CNN
F 2 "Resistor_SMD:R_0805_2012Metric" V 6230 3900 50  0001 C CNN
F 3 "~" H 6300 3900 50  0001 C CNN
	1    6300 3900
	1    0    0    -1  
$EndComp
$Comp
L power:+3V3 #PWR0136
U 1 1 5D433B71
P 6050 3750
F 0 "#PWR0136" H 6050 3600 50  0001 C CNN
F 1 "+3V3" H 6065 3923 50  0000 C CNN
F 2 "" H 6050 3750 50  0001 C CNN
F 3 "" H 6050 3750 50  0001 C CNN
	1    6050 3750
	1    0    0    -1  
$EndComp
$Comp
L power:+3V3 #PWR0137
U 1 1 5D433FE3
P 6300 3750
F 0 "#PWR0137" H 6300 3600 50  0001 C CNN
F 1 "+3V3" H 6315 3923 50  0000 C CNN
F 2 "" H 6300 3750 50  0001 C CNN
F 3 "" H 6300 3750 50  0001 C CNN
	1    6300 3750
	1    0    0    -1  
$EndComp
Wire Wire Line
	6050 4050 6050 4150
Connection ~ 6050 4150
Wire Wire Line
	6050 4150 6850 4150
Wire Wire Line
	6300 4050 6300 4250
Connection ~ 6300 4250
Wire Wire Line
	6300 4250 6850 4250
$Comp
L Device:R R8
U 1 1 5D3B066E
P 6050 3050
F 0 "R8" H 6120 3096 50  0000 L CNN
F 1 "2k2" H 6120 3005 50  0000 L CNN
F 2 "Resistor_SMD:R_0805_2012Metric" V 5980 3050 50  0001 C CNN
F 3 "~" H 6050 3050 50  0001 C CNN
	1    6050 3050
	1    0    0    -1  
$EndComp
Wire Wire Line
	5250 2850 6050 2850
$Comp
L power:GND #PWR0138
U 1 1 5D3B52D5
P 6050 3250
F 0 "#PWR0138" H 6050 3000 50  0001 C CNN
F 1 "GND" H 6055 3077 50  0000 C CNN
F 2 "" H 6050 3250 50  0001 C CNN
F 3 "" H 6050 3250 50  0001 C CNN
	1    6050 3250
	1    0    0    -1  
$EndComp
Wire Wire Line
	6050 3250 6050 3200
Wire Wire Line
	6050 2900 6050 2850
Connection ~ 6050 2850
Wire Wire Line
	6050 2850 6250 2850
$Comp
L Connector_Generic:Conn_01x03 J4
U 1 1 5D6FF891
P 3100 2800
F 0 "J4" H 3018 3117 50  0000 C CNN
F 1 "Conn_01x03" H 3018 3026 50  0000 C CNN
F 2 "Connector_PinHeader_2.54mm:PinHeader_1x03_P2.54mm_Vertical" H 3100 2800 50  0001 C CNN
F 3 "~" H 3100 2800 50  0001 C CNN
	1    3100 2800
	-1   0    0    -1  
$EndComp
Wire Wire Line
	4000 2700 3300 2700
Wire Wire Line
	4000 2800 3300 2800
$Comp
L power:GND #PWR0139
U 1 1 5D713FA3
P 3300 2900
F 0 "#PWR0139" H 3300 2650 50  0001 C CNN
F 1 "GND" H 3305 2727 50  0000 C CNN
F 2 "" H 3300 2900 50  0001 C CNN
F 3 "" H 3300 2900 50  0001 C CNN
	1    3300 2900
	1    0    0    -1  
$EndComp
Text Label 3500 2700 0    50   ~ 0
TX
Text Label 3500 2800 0    50   ~ 0
RX
$EndSCHEMATC
